<?xml version="1.0" encoding="utf-8"?>
<!-- Generator: Adobe Illustrator 18.0.0, SVG Export Plug-In . SVG Version: 6.00 Build 0)  -->
<!DOCTYPE svg PUBLIC "-//W3C//DTD SVG 1.1//EN" "http://www.w3.org/Graphics/SVG/1.1/DTD/svg11.dtd">
<svg version="1.1" id="Layer_1" xmlns="http://www.w3.org/2000/svg" xmlns:xlink="http://www.w3.org/1999/xlink" x="0px" y="0px"
	 viewBox="0 0 46 27" enable-background="new 0 0 46 27" xml:space="preserve">
<title>Icon_1</title>
<desc>Created with Sketch.</desc>
<g id="Home">
	<g id="Case_Study_BBC" transform="translate(-183.000000, -894.000000)">
		<g id="Key_Results_1" transform="translate(-1.000000, 792.000000)">
			<g id="Key_1" transform="translate(186.000000, 89.000000)">
				<g id="Icon_1" transform="translate(0.000000, 15.000000)">
					<path id="Stroke-141" fill="none" stroke="#7268EB" stroke-width="3.5551" stroke-linecap="round" stroke-linejoin="round" d="
						M3.9,20.6c0,1-0.8,1.8-1.9,1.8c-1,0-1.9-0.8-1.9-1.8c0-1,0.8-1.8,1.9-1.8C3,18.7,3.9,19.5,3.9,20.6L3.9,20.6z"/>
					<path id="Stroke-142" fill="none" stroke="#7268EB" stroke-width="3.5551" stroke-linecap="round" stroke-linejoin="round" d="
						M15.1,7.6c0,1-0.8,1.8-1.9,1.8c-1,0-1.9-0.8-1.9-1.8s0.8-1.8,1.9-1.8C14.3,5.8,15.1,6.6,15.1,7.6L15.1,7.6z"/>
					<path id="Stroke-143" fill="none" stroke="#7268EB" stroke-width="3.5551" stroke-linecap="round" stroke-linejoin="round" d="
						M28.2,13.2c0,1-0.8,1.8-1.9,1.8c-1,0-1.9-0.8-1.9-1.8s0.8-1.8,1.9-1.8C27.3,11.3,28.2,12.2,28.2,13.2L28.2,13.2z"/>
					<path id="Stroke-144" fill="none" stroke="#7268EB" stroke-width="3.5551" stroke-linecap="round" stroke-linejoin="round" d="
						M41.3,2.1c0,1-0.8,1.8-1.9,1.8c-1,0-1.9-0.8-1.9-1.8s0.8-1.8,1.9-1.8C40.4,0.3,41.3,1.1,41.3,2.1L41.3,2.1z"/>
					
						<polyline id="Stroke-145" fill="none" stroke="#7268EB" stroke-width="3.5551" stroke-linecap="round" stroke-linejoin="round" points="
						1.5,20.8 13.8,7.3 26.2,12.7 39.9,1.8 					"/>
				</g>
			</g>
		</g>
	</g>
</g>
</svg>
