<?xml version="1.0" encoding="UTF-8"?>
<svg width="43px" height="26px" viewBox="0 0 43 26" version="1.1" xmlns="http://www.w3.org/2000/svg" xmlns:xlink="http://www.w3.org/1999/xlink">
    <!-- Generator: Sketch 40.1 (33804) - http://www.bohemiancoding.com/sketch -->
    <title>MTV_logo</title>
    <desc>Created with Sketch.</desc>
    <defs>
        <polygon id="path-1" points="19.2392531 25.5435151 0 25.5435151 0 0.182868346 19.2392531 0.182868346 38.4785061 0.182868346 38.4785061 25.5435151 19.2392531 25.5435151"></polygon>
        <polygon id="path-3" points="2.43746889 0.182868346 0.0522599797 0.182868346 0.0522599797 9.67280667 2.43746889 9.67280667 2.43746889 0.182868346"></polygon>
    </defs>
    <g id="Home" stroke="none" stroke-width="1" fill="none" fill-rule="evenodd">
        <g transform="translate(-961.000000, -3712.000000)" id="Case_Study_BBC">
            <g transform="translate(-150.000000, 3373.000000)">
                <g id="Brands" transform="translate(953.000000, 302.000000)">
                    <g id="MTV" transform="translate(128.106767, 0.000000)">
                        <g id="MTV_logo" transform="translate(30.251719, 37.339394)">
                            <g id="Group-3" transform="translate(0.000000, 0.107457)">
                                <mask id="mask-2" fill="white">
                                    <use xlink:href="#path-1"></use>
                                </mask>
                                <g id="Clip-2"></g>
                                <path d="M14.6865533,25.5435151 L-2.93925646e-05,25.5435151 L-2.93925646e-05,0.182868346 L14.3068014,0.182868346 C14.3194402,0.199123311 14.3306094,0.216539343 14.3447178,0.231342972 C15.9398523,1.89022011 17.5349868,3.54880699 19.1304152,5.20739386 C19.1515778,5.2291639 19.1747979,5.24919234 19.2162414,5.28837842 C19.2368162,5.25790036 19.2509247,5.22858337 19.2723812,5.20652306 C20.8513498,3.56128848 22.4312002,1.9169247 24.0101687,0.271980382 C24.0357403,0.245275798 24.0545515,0.212475602 24.0765959,0.182868346 L38.4677834,0.182868346 C38.469253,0.224376558 38.4718983,0.26588477 38.4718983,0.307683249 C38.4727801,3.53748657 38.473074,6.76728989 38.4736619,9.99738347 C38.4736619,10.2682028 38.4648441,10.5396026 38.4774829,10.8098414 C38.4860068,10.9985151 38.4413301,11.1593231 38.3413953,11.3207117 C37.3884884,12.8629014 36.5502125,14.4634349 35.8597811,16.1376962 C35.6837197,16.5646792 35.5255877,16.998919 35.3433538,17.4232897 C35.2848626,17.5600055 35.1934517,17.6938187 35.0858749,17.7971538 C34.8968807,17.9788611 34.5409367,17.900489 34.4354174,17.6621796 C34.3842744,17.5460727 34.3487094,17.4189357 34.3322495,17.2935402 C34.1811718,16.1371156 34.0406753,14.97953 33.8860704,13.8236859 C33.8293428,13.4007666 33.7385197,12.9822013 33.5480559,12.5935335 C33.3631767,12.2170569 33.0895319,11.9392711 32.662164,11.8385484 C32.3979249,11.7764312 32.1333918,11.7836879 31.8670951,11.8307112 C31.1137637,11.9636536 30.5976303,12.4353378 30.4359712,13.151427 C30.3430907,13.5621552 30.3780678,13.972593 30.4594852,14.3812892 C30.6252593,15.2140659 30.879505,16.0221698 31.1801909,16.8148896 C31.8626863,18.613095 32.555469,20.4078172 33.2503092,22.2016686 C33.3693491,22.5081908 33.4983825,22.8144227 33.6603355,23.1000456 C33.8778405,23.4834886 34.2229092,23.721798 34.6708519,23.7734656 C34.9201008,23.8024923 35.1752283,23.8024923 35.4265347,23.7908816 C35.8915251,23.7696921 36.2424723,23.5435739 36.4655619,23.1447468 C36.5890106,22.924434 36.6992328,22.6922202 36.7785927,22.4533303 C36.9796378,21.8472523 37.1592264,21.2344982 37.3491024,20.6246468 C37.6700692,19.5939079 37.9992659,18.5660717 38.406059,17.5643595 C38.4198735,17.5298177 38.4360394,17.4961467 38.4513235,17.4621855 C38.4683712,17.503984 38.4683712,17.5385258 38.4683712,17.5730676 C38.4689591,19.9660305 38.4695469,22.3589934 38.4698408,24.7519564 C38.4698408,25.0158093 38.4686651,25.2796622 38.4677834,25.5435151 L29.4786554,25.5435151 C29.4295698,24.9139255 29.345507,24.2846261 29.3390407,23.654456 C29.3281654,22.5891753 29.3607912,21.5230238 29.3848931,20.4571626 C29.4142856,19.1503796 29.3466827,17.8479506 29.2426331,16.5455216 C29.1759119,15.708391 29.1353502,14.8689382 29.104488,14.0297756 C29.0789165,13.3258776 29.0868525,12.6205283 29.0736258,11.9160498 C29.0718623,11.8280988 29.0939067,11.780495 29.1709152,11.7357938 C30.2046517,11.1384239 31.2401517,10.5433761 32.266834,9.93410522 C32.5969125,9.73817485 32.9081798,9.50944428 33.2182713,9.28274558 C33.4090291,9.14312705 33.5565798,8.95967817 33.6479906,8.73849455 C33.729408,8.54111285 33.7523342,8.33908686 33.6559266,8.14228569 C33.2870499,7.3904936 32.2327386,7.01198515 31.5108573,7.47409056 C31.2686625,7.62909325 31.0602693,7.83692458 30.8377675,8.02182479 C30.598806,8.2200773 30.3798314,8.44909814 30.1194133,8.61338938 C29.5215685,8.9904465 28.9010915,9.33209101 28.2964864,9.6986985 C28.1583414,9.78258573 28.053116,9.78403707 27.9055653,9.72133935 C27.3812019,9.49841413 26.8392031,9.45110057 26.2930892,9.64499907 C25.807818,9.8174178 25.5582751,10.1788005 25.5582751,10.685607 C25.5582751,10.8417708 25.5615083,10.9979346 25.5600386,11.1540983 C25.5579812,11.389505 25.4404109,11.5619238 25.2496532,11.6916732 C25.1976283,11.7267955 25.1429582,11.7587249 25.0885819,11.7903641 C24.1447867,12.3404204 23.1962886,12.8832201 22.258078,13.4422748 C21.542369,13.8689676 20.8087306,14.2474761 19.9951444,14.4616933 C19.7091548,14.5368725 19.4396249,14.6613971 19.21389,14.8581983 C18.9417149,15.0950563 18.7956338,15.389097 18.8370774,15.7528018 C18.9458299,16.707781 19.8905069,17.2891862 20.8060853,16.9698923 C21.2637275,16.8105356 21.6493579,16.5327498 22.0355762,16.2535128 C22.8917816,15.6343728 23.7497506,15.0172647 24.6106588,14.4042204 C24.8446236,14.2373167 25.0985754,14.1020522 25.376923,14.0172942 C25.7022987,13.9177325 25.9953425,14.0524165 26.1220245,14.3644537 C26.1561199,14.4480507 26.1849246,14.5339698 26.2081447,14.6207597 C26.3160154,15.021909 26.2992616,15.4323468 26.3027888,15.8419139 C26.3154276,17.3254696 26.2501761,18.806413 26.1617044,20.2867758 C26.0814627,21.631874 26.0162113,22.9772626 26.0397253,24.3255538 C26.0467795,24.7313474 26.0532459,25.1374312 26.0603001,25.5435151 L23.696844,25.5435151 C23.6980197,23.244889 23.6989015,20.9462629 23.6997832,18.6473465 C23.6997832,18.6290597 23.6944926,18.6107729 23.6894958,18.5788435 C22.1837148,19.830766 20.6891029,21.0733999 19.1906699,22.3189365 C17.6916491,21.0739805 16.1973311,19.8330881 14.6821444,18.5747797 L14.6821444,18.7622923 C14.6821444,20.9880614 14.6821444,23.2138304 14.6824384,25.4395994 C14.6824384,25.4741412 14.6850837,25.5089733 14.6865533,25.5435151" id="Fill-1" fill="#FFFFFF" mask="url(#mask-2)"></path>
                            </g>
                            <path d="M39.438414,25.650972 C39.4381201,22.3207362 39.4369444,18.9905004 39.4416472,15.6602646 C39.4419411,15.5267417 39.4725094,15.379286 39.5342338,15.2617278 C40.1905697,14.0124177 40.936553,12.8170973 41.7815893,11.6830232 C41.7854103,11.6777984 41.7924645,11.675186 41.8171543,11.6580603 L41.8171543,11.784907 C41.8174482,15.8202019 41.8177421,19.8554967 41.8186239,23.8905013 C41.8189178,24.4774216 41.8212692,25.0640517 41.8227389,25.650972 L39.438414,25.650972 Z" id="Fill-4" fill="#FFFFFF"></path>
                            <g id="Group-8" transform="translate(39.386036, 0.107457)">
                                <mask id="mask-4" fill="white">
                                    <use xlink:href="#path-3"></use>
                                </mask>
                                <g id="Clip-7"></g>
                                <path d="M0.0945852727,0.182810293 C0.125447465,0.204580334 0.155133956,0.228091979 0.187465777,0.247539882 C0.906407905,0.675684027 1.62505611,1.10411844 2.34576179,1.52935991 C2.40983758,1.56738492 2.43776052,1.60482939 2.43746659,1.682621 C2.43452734,3.34904509 2.43540911,5.01575945 2.43217593,6.68218354 C2.43217593,6.73849538 2.41189506,6.80844978 2.37515435,6.84879692 C1.57773408,7.72482338 0.82910546,8.63974565 0.126917094,9.59182212 C0.11163296,9.61272135 0.0925277931,9.63129846 0.0554931618,9.67280667 C0.0554931618,9.47049042 0.0557870875,9.29516902 0.0554931618,9.11984762 C0.0549053105,6.18611686 0.0543174593,3.25209584 0.053729608,0.318074816 C0.053729608,0.273083397 0.052847831,0.227801711 0.0522599797,0.182810293 L0.0945852727,0.182810293 Z" id="Fill-6" fill="#FFFFFF" mask="url(#mask-4)"></path>
                            </g>
                            <path d="M15.6572134,25.650972 C15.6560377,25.6094638 15.6539802,25.5676653 15.6539802,25.5261571 L15.6539802,20.8917507 L15.6539802,20.7492295 C15.6933662,20.7779659 15.7209952,20.7956722 15.7459789,20.8162812 C16.3499961,21.31467 16.9546012,21.8127686 17.5568548,22.3134795 C17.5871292,22.3387328 17.6168157,22.3857561 17.6171096,22.42262 C17.6203428,23.4986406 17.6197549,24.5749514 17.6197549,25.650972 L15.6572134,25.650972 Z" id="Fill-9" fill="#FFFFFF"></path>
                            <path d="M22.7160435,20.7572699 C22.7160435,21.2141505 22.7178071,21.6478097 22.7133982,22.0811787 C22.7128103,22.1221063 22.6746,22.1624535 22.6534373,22.2028006 C22.6519677,22.205413 22.6481467,22.2071546 22.6455013,22.2091865 C22.5217586,22.3061358 22.4112426,22.4405295 22.2704522,22.4895846 C22.1296618,22.5386398 21.9580093,22.5035175 21.8001712,22.5032272 C21.4521632,22.5032272 21.1044492,22.5017759 20.7564412,22.5003245 C20.7232276,22.5003245 20.6897201,22.4968413 20.6274079,22.4933581 C21.3337112,21.9061475 22.0194397,21.336353 22.7160435,20.7572699" id="Fill-11" fill="#FFFFFF"></path>
                            <path d="M20.5151283,2.6199519 C20.0721823,3.0820573 19.6354088,3.5380671 19.1939325,3.99872117 C18.0229327,2.77901833 16.8566358,1.5645403 15.6900449,0.349771996 C15.6962173,0.341934781 15.7023897,0.333807299 15.7085622,0.325970084 C15.7429515,0.339322376 15.7779286,0.351803866 15.8117301,0.366607494 C17.18789,0.961365021 18.563462,1.55815442 19.9410915,2.14971901 C20.1768198,2.25102226 20.3328944,2.43708355 20.5151283,2.6199519" id="Fill-13" fill="#FFFFFF"></path>
                        </g>
                    </g>
                </g>
            </g>
        </g>
    </g>
</svg>